2019-09-05 20:11:53,445,445 root INFO Process started
2019-09-05 20:11:53,445,445 root INFO Model loading... 
2019-09-05 20:11:53,445,445 root INFO Loading file 5
2019-09-05 20:11:53,518,518 root INFO Loading file 4
2019-09-05 20:11:53,609,609 root INFO Loading file 3
2019-09-05 20:11:53,706,706 root INFO Loading file 2
2019-09-05 20:11:53,819,819 root INFO Loading file 1
2019-09-05 20:11:53,924,924 root INFO Model loading Completed
2019-09-05 20:11:54,042,42 werkzeug INFO  * Running on http://0.0.0.0:7000/ (Press CTRL+C to quit)
